<?xml version="1.0" encoding="UTF-8" standalone="no"?>
<svg
   xmlns:dc="http://purl.org/dc/elements/1.1/"
   xmlns:cc="http://creativecommons.org/ns#"
   xmlns:rdf="http://www.w3.org/1999/02/22-rdf-syntax-ns#"
   xmlns:svg="http://www.w3.org/2000/svg"
   xmlns="http://www.w3.org/2000/svg"
   xmlns:xlink="http://www.w3.org/1999/xlink"
   id="svg148"
   version="1.2"
   viewBox="0 0 419.527 297.638"
   height="297.638pt"
   width="419.527pt">
  <metadata
     id="metadata152">
    <rdf:RDF>
      <cc:Work
         rdf:about="">
        <dc:format>image/svg+xml</dc:format>
        <dc:type
           rdf:resource="http://purl.org/dc/dcmitype/StillImage" />
        <dc:title></dc:title>
      </cc:Work>
    </rdf:RDF>
  </metadata>
  <defs
     id="defs43">
    <g
       id="g38">
      <symbol
         id="glyph0-0"
         overflow="visible">
        <path
           id="path2"
           d="M 1.125 10.9375 L 15.1875 10.9375 L 15.1875 -26.15625 L 1.125 -26.15625 Z M 1.125 10.9375 "
           style="stroke:none;" />
      </symbol>
      <symbol
         id="glyph0-1"
         overflow="visible">
        <path
           id="path5"
           d="M 5.03125 0 L 10 0 C 10.375 0 10.5625 -0.21875 10.5625 -0.5625 L 10.5625 -21.9375 C 10.5625 -22.28125 10.78125 -22.5 11.125 -22.5 L 13.953125 -22.5 C 14.296875 -22.5 14.515625 -22.71875 14.515625 -23.0625 L 14.515625 -27.421875 C 14.515625 -27.796875 14.296875 -27.984375 13.953125 -27.984375 L 1.1875 -27.984375 C 0.859375 -27.984375 0.640625 -27.765625 0.640625 -27.421875 L 0.640625 -23.0625 C 0.640625 -22.6875 0.859375 -22.5 1.1875 -22.5 L 3.921875 -22.5 C 4.25 -22.5 4.484375 -22.28125 4.484375 -21.9375 L 4.484375 -0.5625 C 4.484375 -0.21875 4.703125 0 5.03125 0 Z M 5.03125 0 "
           style="stroke:none;" />
      </symbol>
      <symbol
         id="glyph0-2"
         overflow="visible">
        <path
           id="path8"
           d="M 9.359375 0.296875 C 14.0625 0.296875 17.34375 -2.34375 17.34375 -6.984375 L 17.34375 -21 C 17.34375 -25.671875 14.0625 -28.28125 9.359375 -28.28125 C 4.625 -28.28125 1.34375 -25.671875 1.34375 -21 L 1.34375 -6.984375 C 1.34375 -2.34375 4.625 0.296875 9.359375 0.296875 Z M 9.359375 -5.15625 C 7.953125 -5.15625 7.46875 -6.15625 7.46875 -7.71875 L 7.46875 -20.265625 C 7.46875 -21.828125 7.953125 -22.828125 9.359375 -22.828125 C 10.78125 -22.828125 11.265625 -21.828125 11.265625 -20.265625 L 11.265625 -7.71875 C 11.265625 -6.15625 10.78125 -5.15625 9.359375 -5.15625 Z M 9.359375 -5.15625 "
           style="stroke:none;" />
      </symbol>
      <symbol
         id="glyph0-3"
         overflow="visible">
        <path
           id="path11"
           d="M 0.828125 0 L 5.328125 0 C 5.671875 0 5.828125 -0.109375 5.890625 -0.5625 L 6.265625 -2.765625 C 6.3125 -2.984375 6.375 -3.328125 6.828125 -3.328125 L 10.640625 -3.328125 C 11.078125 -3.328125 11.15625 -2.984375 11.1875 -2.765625 L 11.5625 -0.5625 C 11.640625 -0.109375 11.796875 0 12.125 0 L 16.640625 0 C 17.015625 0 17.203125 -0.1875 17.125 -0.640625 L 11.828125 -27.3125 C 11.71875 -27.875 11.609375 -27.984375 11 -27.984375 L 6.453125 -27.984375 C 5.859375 -27.984375 5.75 -27.875 5.640625 -27.3125 L 0.328125 -0.640625 C 0.265625 -0.1875 0.453125 0 0.828125 0 Z M 7.5 -8.46875 C 7.234375 -8.46875 7.15625 -8.625 7.203125 -8.875 L 8.546875 -17.125 C 8.578125 -17.34375 8.875 -17.34375 8.921875 -17.125 L 10.21875 -8.875 C 10.265625 -8.625 10.1875 -8.46875 9.921875 -8.46875 Z M 7.5 -8.46875 "
           style="stroke:none;" />
      </symbol>
      <symbol
         id="glyph0-4"
         overflow="visible">
        <path
           id="path14"
           d="M 1.71875 -0.5625 C 1.71875 -0.21875 1.9375 0 2.28125 0 L 12.90625 0 C 13.25 0 13.46875 -0.21875 13.46875 -0.5625 L 13.46875 -4.84375 C 13.46875 -5.1875 13.25 -5.40625 12.90625 -5.40625 L 8.390625 -5.40625 C 8.0625 -5.40625 7.828125 -5.640625 7.828125 -5.96875 L 7.828125 -27.421875 C 7.828125 -27.765625 7.609375 -27.984375 7.28125 -27.984375 L 2.28125 -27.984375 C 1.90625 -27.984375 1.71875 -27.765625 1.71875 -27.421875 Z M 1.71875 -0.5625 "
           style="stroke:none;" />
      </symbol>
      <symbol
         id="glyph0-5"
         overflow="visible">
        <path
           id="path17"
           d="M 5.96875 0 L 11.125 0 C 11.453125 0 11.671875 -0.21875 11.671875 -0.5625 L 11.671875 -9.515625 C 11.671875 -9.65625 11.71875 -9.84375 11.75 -10 L 16.5625 -27.421875 C 16.671875 -27.765625 16.53125 -27.984375 16.1875 -27.984375 L 11.265625 -27.984375 C 10.890625 -27.984375 10.59375 -27.765625 10.515625 -27.421875 L 8.734375 -19.21875 C 8.6875 -19.03125 8.390625 -19.03125 8.359375 -19.21875 L 6.53125 -27.421875 C 6.453125 -27.765625 6.15625 -27.984375 5.78125 -27.984375 L 0.859375 -27.984375 C 0.515625 -27.984375 0.375 -27.765625 0.484375 -27.421875 L 5.328125 -10 C 5.375 -9.84375 5.40625 -9.65625 5.40625 -9.515625 L 5.40625 -0.5625 C 5.40625 -0.21875 5.640625 0 5.96875 0 Z M 5.96875 0 "
           style="stroke:none;" />
      </symbol>
      <symbol
         id="glyph0-6"
         overflow="visible">
        <path
           id="path20"
           d=""
           style="stroke:none;" />
      </symbol>
      <symbol
         id="glyph0-7"
         overflow="visible">
        <path
           id="path23"
           d="M 6.375 0 L 10.484375 0 C 11.3125 0 11.265625 -0.1875 11.421875 -0.78125 L 14.21875 -14.65625 C 14.25 -14.890625 14.546875 -14.890625 14.59375 -14.65625 L 17.421875 -0.78125 C 17.578125 -0.1875 17.53125 0 18.359375 0 L 22.46875 0 C 23.171875 0 23.25 -0.1875 23.359375 -0.78125 L 28.5 -27.203125 C 28.625 -27.765625 28.46875 -27.984375 27.828125 -27.984375 L 23.203125 -27.984375 C 22.609375 -27.984375 22.421875 -27.875 22.3125 -27.203125 L 20.265625 -13.140625 C 20.21875 -12.90625 19.921875 -12.90625 19.890625 -13.140625 L 17.53125 -27.203125 C 17.421875 -27.828125 17.234375 -27.984375 16.640625 -27.984375 L 12.15625 -27.984375 C 11.5625 -27.984375 11.421875 -27.828125 11.3125 -27.203125 L 8.953125 -13.140625 C 8.921875 -12.90625 8.625 -12.90625 8.578125 -13.140625 L 6.53125 -27.203125 C 6.453125 -27.875 6.234375 -27.984375 5.59375 -27.984375 L 1 -27.984375 C 0.375 -27.984375 0.21875 -27.765625 0.328125 -27.203125 L 5.484375 -0.78125 C 5.59375 -0.1875 5.671875 0 6.375 0 Z M 6.375 0 "
           style="stroke:none;" />
      </symbol>
      <symbol
         id="glyph0-8"
         overflow="visible">
        <path
           id="path26"
           d="M 2.28125 0 L 12.90625 0 C 13.25 0 13.46875 -0.21875 13.46875 -0.5625 L 13.46875 -4.84375 C 13.46875 -5.1875 13.25 -5.40625 12.90625 -5.40625 L 8.390625 -5.40625 C 8.0625 -5.40625 7.828125 -5.640625 7.828125 -5.96875 L 7.828125 -10.828125 C 7.828125 -11.15625 8.0625 -11.375 8.390625 -11.375 L 12.90625 -11.375 C 13.25 -11.375 13.46875 -11.609375 13.46875 -11.9375 L 13.46875 -16.234375 C 13.46875 -16.5625 13.25 -16.796875 12.90625 -16.796875 L 8.390625 -16.796875 C 8.0625 -16.796875 7.828125 -17.015625 7.828125 -17.34375 L 7.828125 -22.015625 C 7.828125 -22.34375 8.0625 -22.578125 8.390625 -22.578125 L 12.90625 -22.578125 C 13.25 -22.578125 13.46875 -22.796875 13.46875 -23.140625 L 13.46875 -27.421875 C 13.46875 -27.765625 13.25 -27.984375 12.90625 -27.984375 L 2.28125 -27.984375 C 1.90625 -27.984375 1.71875 -27.765625 1.71875 -27.421875 L 1.71875 -0.5625 C 1.71875 -0.21875 1.9375 0 2.28125 0 Z M 2.28125 0 "
           style="stroke:none;" />
      </symbol>
      <symbol
         id="glyph0-9"
         overflow="visible">
        <path
           id="path29"
           d="M 8.921875 0.296875 C 13.65625 0.296875 16.9375 -2.34375 16.9375 -6.984375 L 16.9375 -8.5 C 16.9375 -12.65625 13.546875 -14.625 11.046875 -16.15625 C 8.5 -17.65625 7.015625 -18.65625 7.015625 -20 L 7.015625 -20.78125 C 7.015625 -21.9375 7.53125 -22.828125 8.921875 -22.828125 C 10.328125 -22.828125 10.859375 -21.828125 10.859375 -20.265625 L 10.859375 -19.484375 C 10.859375 -19.140625 11.046875 -18.921875 11.421875 -18.921875 L 16.375 -18.921875 C 16.75 -18.921875 16.9375 -19.140625 16.9375 -19.484375 L 16.9375 -21 C 16.9375 -25.671875 13.65625 -28.28125 8.921875 -28.28125 C 4.21875 -28.28125 0.9375 -25.671875 0.9375 -21 L 0.9375 -19.484375 C 0.9375 -15.328125 4.328125 -13.390625 6.828125 -11.859375 C 9.328125 -10.375 10.859375 -9.328125 10.859375 -7.984375 L 10.859375 -7.203125 C 10.859375 -6 10.328125 -5.15625 8.921875 -5.15625 C 7.53125 -5.15625 7.015625 -6.15625 7.015625 -7.578125 L 7.015625 -8.5 C 7.015625 -8.84375 6.796875 -9.0625 6.453125 -9.0625 L 1.5 -9.0625 C 1.125 -9.0625 0.9375 -8.84375 0.9375 -8.5 L 0.9375 -6.984375 C 0.9375 -2.34375 4.21875 0.296875 8.921875 0.296875 Z M 8.921875 0.296875 "
           style="stroke:none;" />
      </symbol>
      <symbol
         id="glyph0-10"
         overflow="visible">
        <path
           id="path32"
           d="M 13.8125 -14.328125 C 13.6875 -14.109375 13.46875 -14.109375 13.390625 -14.328125 L 8.0625 -27.421875 C 7.90625 -27.765625 7.71875 -27.984375 7.390625 -27.984375 L 2.28125 -27.984375 C 1.90625 -27.984375 1.71875 -27.765625 1.71875 -27.421875 L 1.71875 -0.5625 C 1.71875 -0.21875 1.9375 0 2.28125 0 L 7.28125 0 C 7.65625 0 7.828125 -0.21875 7.828125 -0.5625 L 7.828125 -12.6875 C 7.828125 -12.90625 8.140625 -12.953125 8.203125 -12.71875 L 10.484375 -6.125 C 10.59375 -5.78125 10.828125 -5.5625 11.15625 -5.5625 L 16 -5.5625 C 16.34375 -5.5625 16.5625 -5.78125 16.671875 -6.125 L 18.984375 -12.71875 C 19.0625 -12.953125 19.359375 -12.90625 19.359375 -12.6875 L 19.359375 -0.5625 C 19.359375 -0.21875 19.546875 0 19.921875 0 L 24.890625 0 C 25.21875 0 25.453125 -0.21875 25.453125 -0.5625 L 25.453125 -27.421875 C 25.453125 -27.765625 25.265625 -27.984375 24.890625 -27.984375 L 19.78125 -27.984375 C 19.4375 -27.984375 19.25 -27.765625 19.109375 -27.421875 Z M 13.8125 -14.328125 "
           style="stroke:none;" />
      </symbol>
      <symbol
         id="glyph0-11"
         overflow="visible">
        <path
           id="path35"
           d="M 3.359375 -9 L 6.34375 -9 C 6.71875 -9 6.859375 -9.21875 6.90625 -9.546875 L 7.875 -27.421875 C 7.90625 -27.765625 7.65625 -27.984375 7.3125 -27.984375 L 2.34375 -27.984375 C 1.984375 -27.984375 1.75 -27.765625 1.796875 -27.421875 L 2.796875 -9.546875 C 2.828125 -9.21875 3.015625 -9 3.359375 -9 Z M 4.84375 0.03125 C 6.671875 0.03125 8.140625 -1.375 8.140625 -3.203125 C 8.140625 -5.03125 6.671875 -6.5 4.84375 -6.5 C 3.015625 -6.5 1.609375 -5.03125 1.609375 -3.203125 C 1.609375 -1.375 3.015625 0.03125 4.84375 0.03125 Z M 4.84375 0.03125 "
           style="stroke:none;" />
      </symbol>
    </g>
    <clipPath
       id="clip1">
      <path
         id="path40"
         d="M 0.0195312 0 L 419.035156 0 L 419.035156 84 L 0.0195312 84 Z M 0.0195312 0 " />
    </clipPath>
  </defs>
  <path
     style="fill:#f8a60c;fill-opacity:1;fill-rule:nonzero;stroke:none"
     d="m 345.88281,212.51953 0.78906,-2.01172 h -25.01953 l 0.78907,2.01172 c 0.83203,2.11719 2.3125,3.94531 4.28906,5.28906 l 0.375,0.25391 h 14.11328 l 0.375,-0.25391 c 1.97656,-1.34375 3.45703,-3.17187 4.28906,-5.28906"
     id="path45" />
  <path
     style="fill:#f8a60c;fill-opacity:1;fill-rule:nonzero;stroke:none"
     d="M 309.69922,257.58984 H 358.625 v -7.65625 h -48.92578 z m 0,0"
     id="path47" />
  <path
     style="fill:#f8a60c;fill-opacity:1;fill-rule:nonzero;stroke:none"
     d="m 316.28906,247.97266 h 35.7461 v -6.65235 h -35.7461 z m 0,0"
     id="path49" />
  <path
     style="fill:#f37014;fill-opacity:1;fill-rule:nonzero;stroke:none"
     d="m 376.08984,107.42188 h -83.85547 v 7.1914 h 83.85547 z m 0,0"
     id="path51" />
  <path
     style="fill:#f37014;fill-opacity:1;fill-rule:nonzero;stroke:none"
     d="M 340.01172,220.02734 H 328.3125 V 231.375 h 11.69922 z m 0,0"
     id="path53" />
  <path
     style="fill:#f8a60c;fill-opacity:1;fill-rule:nonzero;stroke:none"
     d="m 327.55859,237.26172 -0.97656,2.09375 h 15.15625 l -0.96875,-2.09375 c -0.46875,-1.00391 -0.64844,-1.97266 -0.71484,-2.60547 l -0.14063,-1.31641 h -11.5039 l -0.14063,1.31641 c -0.0664,0.63281 -0.24609,1.60156 -0.71094,2.60547"
     id="path55" />
  <path
     style="fill:#ca7a47;fill-opacity:1;fill-rule:nonzero;stroke:none"
     d="m 303.58984,277.09766 -2.41015,5.33203 h 65.89453 l -2.67578,-5.33203 z m 0,0"
     id="path57" />
  <path
     style="fill:#f37014;fill-opacity:1;fill-rule:nonzero;stroke:none"
     d="m 397.16797,131.01562 c -1.6836,-2.30078 -4.16406,-3.80468 -6.97266,-4.23046 l -0.25781,-0.043 -14.23047,0.46484 -0.0195,1.41016 c -0.0117,0.9375 -0.0312,1.91406 -0.0547,2.92578 l -0.0351,1.55859 13.93359,-0.46094 0.125,0.0273 c 1.10937,0.25781 2.08984,0.90625 2.76562,1.82812 0.75782,1.03125 1.06641,2.29297 0.875,3.5625 l -4.26953,28.03907 c -0.39843,2.61328 -2.83593,4.41406 -5.43359,4.01953 l -0.30078,-0.043 -12.06641,0.92187 -0.24609,1.05469 c -0.21485,0.94141 -0.44531,1.88672 -0.6836,2.82031 l -0.5,1.96485 13.23047,-0.85157 0.0859,0.008 c 5.71484,0.63672 10.86328,-3.32032 11.73047,-9.00782 l 4.27344,-28.03906 c 0.42578,-2.8164 -0.26172,-5.63672 -1.94922,-7.92969"
     id="path59" />
  <path
     style="fill:#f8a60c;fill-opacity:1;fill-rule:nonzero;stroke:none"
     d="m 373.62109,118.00781 -0.043,-1.42968 h -78.83203 l -0.043,1.42968 c -0.17578,5.83594 -0.35546,21.21485 1.82032,37.9375 2.43359,18.73047 8.43359,43.02344 23.17578,52.3711 l 0.35937,0.22656 h 28.20703 l 0.35938,-0.22656 c 14.74219,-9.34766 20.73828,-33.64063 23.17578,-52.3711 2.17578,-16.72265 1.99609,-32.10156 1.82031,-37.9375"
     id="path61" />
  <path
     style="fill:#ca7a47;fill-opacity:1;fill-rule:nonzero;stroke:none"
     d="m 304.12109,275.13281 h 60.08203 v -15.57812 h -60.08203 z m 0,0"
     id="path63" />
  <path
     style="fill:#f37014;fill-opacity:1;fill-rule:nonzero;stroke:none"
     d="m 297.37109,172.1875 -0.24218,-1.05078 -13.91016,-1.0625 -0.29297,0.043 c -2.60156,0.39843 -5.04297,-1.40625 -5.44141,-4.01953 l -4.26953,-28.03907 c -0.1914,-1.26953 0.11719,-2.53515 0.875,-3.5664 0.67578,-0.92188 1.65625,-1.56641 2.76563,-1.82422 l 0.125,-0.0273 15.75,0.51954 -0.0391,-1.5586 c -0.0234,-1.01172 -0.0391,-1.98828 -0.0547,-2.92578 l -0.0195,-1.41015 -16.04297,-0.52344 -0.25,0.0391 c -2.81641,0.42969 -5.30078,1.93359 -6.98047,4.23047 -1.6875,2.29687 -2.375,5.11719 -1.94922,7.93359 l 4.27344,28.03906 c 0.86328,5.6875 6.00781,9.62891 11.73047,9.00782 l 0.0859,-0.008 15.07422,0.96875 -0.5,-1.96484 c -0.23828,-0.92969 -0.46484,-1.86328 -0.6875,-2.80078"
     id="path65" />
  <g
     clip-path="url(#clip1)"
     id="g69"
     style="clip-rule:nonzero">
    <path
       style="fill:#3fbfe8;fill-opacity:1;fill-rule:nonzero;stroke:none"
       d="M 435.65234,83.351562 H -18.359375 v -102.375 H 435.65234 Z m 0,0"
       id="path67" />
  </g>
  <path
     style="fill:#0f0c0c;fill-opacity:1;fill-rule:nonzero;stroke:none"
     d="m 397.80078,136.87891 c 0.0469,1.01562 -0.0391,2.66406 -0.19141,3.66796 l -3.71484,24.39454 c -0.15234,1.0039 -0.55859,2.60156 -0.89844,3.55859 0,0 -0.9375,2.60937 -2.625,4 -1.85156,1.52344 -5.03125,1.84375 -5.03125,1.84375 -1.01172,0.10156 -1.88672,0.17969 -1.94531,0.17187 -0.0586,-0.004 -0.93359,0.043 -1.94531,0.10547 l -1.44141,0.0937 c -1.01562,0.0664 -2.67187,0.17188 -3.68359,0.23828 l -2.53125,0.16407 c -1.01563,0.0664 -1.73438,-0.3086 -1.60547,-0.83203 0.13281,-0.51954 1.28906,-1.96875 2.29687,-2.04297 l 7.14454,-0.54688 c 1.00781,-0.0781 1.86718,-0.13672 1.90234,-0.1289 0.0391,0.004 0.89453,-0.0312 1.91016,-0.082 0,0 1.34375,-0.0664 2.60156,-0.92187 1.38672,-0.94922 1.99609,-2.52344 1.99609,-2.52344 0.3711,-0.94531 0.79688,-2.53906 0.94922,-3.54297 l 3.71484,-24.39453 c 0.15235,-1 0.23829,-2.65234 0.19141,-3.66406 0,0 -0.0664,-1.46875 -1.05859,-2.81641 -0.88282,-1.20312 -1.92578,-1.65625 -1.92578,-1.65625 -0.92969,-0.40234 -1.76172,-0.74609 -1.84766,-0.76562 -0.0859,-0.0195 -0.98828,-0.008 -2,0.0234 l -7.38672,0.24609 c -1.01562,0.0312 -2.17969,0.0703 -2.59375,0.0859 -0.41406,0.0117 -0.73828,-0.4375 -0.72656,-1 l 0.0117,-0.5 0.008,-0.48047 c 0.008,-0.51563 0.36719,-0.95313 0.80078,-0.96485 0.43359,-0.0156 1.61719,-0.0547 2.63281,-0.0859 l 7.42188,-0.24219 c 1.01562,-0.0352 1.87109,-0.0586 1.90625,-0.0508 0.0312,0.004 0.83984,0.29297 1.79297,0.64062 0,0 2.82812,1.03125 4.27734,3.01563 1.45703,1.98047 1.59375,4.99219 1.59375,4.99219 m -48.25,69.10156 c -0.81641,0.59765 -2.31641,1.08984 -3.32812,1.08984 h -23.66407 c -1.01172,0 -2.48437,-0.52734 -3.26562,-1.17187 0,0 -5.17188,-4.26563 -7.76172,-8.05469 -3.19531,-4.67578 -5.71094,-10.28125 -7.69141,-16.22266 -2.83203,-8.5039 -4.5664,-17.69922 -5.6289,-25.86328 -2.1836,-16.78906 -1.83985,-35.85937 -1.83985,-35.85937 0.0195,-1.01563 0.86328,-1.84766 1.875,-1.84766 h 72.28516 c 1.01562,0 1.85937,0.83203 1.87891,1.84766 0,0 0.34375,19.07031 -1.83985,35.85937 -1.75,13.44141 -5.32422,29.67969 -12.61328,41.01563 -1.36719,2.13281 -2.87109,4.08984 -4.51562,5.82422 -1.64454,1.73046 -3.89063,3.38281 -3.89063,3.38281 m -19.69141,31.90234 c -0.40625,0 -0.54687,-0.46484 -0.32031,-1.03125 l 0.13281,-0.48047 0.15625,-0.57812 c 0.0742,-0.53906 0.41407,-0.98047 0.76172,-0.98047 h 7.61719 c 0.33594,0 0.66797,0.39844 0.73438,0.89062 l 0.1289,0.51954 0.13281,0.52343 c 0.25391,0.625 0.15625,1.13672 -0.20703,1.13672 z m 20.92969,6.76953 c 0,1.01563 -0.82812,1.84766 -1.84375,1.84766 h -29.10937 c -1.01563,0 -1.84766,-0.83203 -1.84766,-1.84766 v -0.0156 c 0,-1.01563 0.83203,-1.84375 1.84766,-1.84375 h 29.10937 c 1.01563,0 1.84375,0.82812 1.84375,1.84375 z m 6.58985,9.6211 c 0,1.01172 -0.83204,1.84375 -1.84375,1.84375 h -42.28907 c -1.01562,0 -1.84375,-0.83203 -1.84375,-1.84375 v -1.01953 c 0,-1.01563 0.82813,-1.84375 1.84375,-1.84375 h 42.28907 c 1.01171,0 1.84375,0.82812 1.84375,1.84375 z m 5.58203,17.54297 c 0,1.01171 -0.83203,1.84375 -1.84375,1.84375 h -53.44922 c -1.01563,0 -1.84766,-0.83204 -1.84766,-1.84375 v -8.94532 c 0,-1.01172 0.83203,-1.84375 1.84766,-1.84375 h 53.44922 c 1.01172,0 1.84375,0.83203 1.84375,1.84375 z m -58.27344,9.14062 c -0.55078,0 -0.75391,-0.53906 -0.46094,-1.19141 0.29688,-0.66015 0.88281,-1.19531 1.30469,-1.19531 h 57.46094 c 0.39843,0 0.99218,0.53516 1.32422,1.19531 0.32812,0.65235 0.19531,1.19141 -0.29297,1.19141 z m 37.66406,-65.61719 c -0.74609,0.6875 -2.1875,1.25 -3.19922,1.25 h -9.52343 c -1.01172,0 -2.45313,-0.5625 -3.19922,-1.25 l -1.45703,-1.76562 c -0.51563,-0.875 -0.10157,-1.59375 0.91015,-1.59375 h 17.01172 c 1.01563,0 1.42578,0.71875 0.91406,1.59375 z m -3.58594,12.71875 c 0,1.01172 -0.83203,1.84375 -1.84375,1.84375 h -5.0625 c -1.01562,0 -1.84375,-0.83203 -1.84375,-1.84375 v -4.71484 c 0,-1.01563 0.82813,-1.84375 1.84375,-1.84375 h 5.0625 c 1.01172,0 1.84375,0.82812 1.84375,1.84375 z M 285.51953,174.625 c -1.01562,-0.0664 -1.89062,-0.11328 -1.94922,-0.10938 -0.0586,0.008 -0.9375,-0.0195 -1.94922,-0.0586 0,0 -1.7539,-0.0664 -3.28515,-0.82812 -1.15625,-0.57422 -2.17578,-1.38672 -2.9961,-2.38672 -1.02343,-1.23828 -1.46093,-2.71094 -1.46093,-2.71094 -0.28907,-0.97266 -0.65235,-2.58594 -0.80469,-3.58984 l -3.71875,-24.39454 c -0.15235,-1.0039 -0.33594,-2.65234 -0.41406,-3.66406 0,0 -0.004,-0.0664 0.14062,-0.99219 0.22656,-1.43359 0.79297,-2.80078 1.67578,-4.0039 1.01172,-1.38672 2.36328,-2.4336 3.91406,-3.06641 l 0.66407,-0.27734 c 0.79297,-0.16797 1.46484,-0.3086 1.49609,-0.3125 0.0352,-0.008 0.89063,0.0156 1.90234,0.0508 l 10.8125,0.35156 c 1.01563,0.0352 1.85157,0.53516 1.85938,1.10938 l 0.0117,0.54297 0.008,0.44531 c 0.0117,0.5 -0.69922,0.88281 -1.58594,0.85547 -0.88281,-0.0312 -2.4375,-0.082 -3.45312,-0.11719 l -7.48047,-0.24609 c -1.01563,-0.0312 -1.91406,-0.043 -2,-0.0234 -0.0859,0.0195 -0.60547,0.17187 -1.16016,0.33594 l -0.46093,0.23828 c -0.84375,0.4414 -1.58594,1.07031 -2.15235,1.84765 -0.99219,1.34766 -1.05859,2.81641 -1.05859,2.81641 -0.0508,1.01172 0.0351,2.66406 0.1914,3.66406 l 3.71485,24.39453 c 0.15234,1.00391 0.57031,2.60157 0.92969,3.55078 0,0 0.53515,1.42188 1.82031,2.375 1.28906,0.94922 2.80078,1.03907 2.80078,1.03907 1.01562,0.0625 1.87109,0.10937 1.90625,0.10547 0.0352,-0.008 0.89453,0.0508 1.90234,0.1289 l 3.67969,0.28125 c 1.01172,0.0781 2.66797,0.20313 3.67969,0.28125 l 1.6289,0.125 c 1.01172,0.0781 1.94141,0.56641 2.06641,1.08594 0.125,0.51953 -0.36328,1.83203 -1.375,1.76562 z m 9.32031,-8.93359 c 0.14063,1.0039 -0.57031,1.76171 -1.58203,1.68359 l -8.10547,-0.61719 c -1.01172,-0.0781 -1.99218,-0.11719 -2.17968,-0.0898 -0.1836,0.0312 -0.65625,-0.0391 -1.04297,-0.14844 -0.39063,-0.10937 -0.94141,-1.75781 -1.09375,-2.76172 l -3.71485,-24.39453 c -0.15625,-1 -0.26562,-2.14453 -0.25,-2.53906 l 0.21875,-0.29688 0.14063,-0.19531 c 0.21875,-0.12891 1.22265,-0.21094 2.23828,-0.17578 l 10.30078,0.33984 c 1.01563,0.0312 1.89844,0.88672 1.96875,1.90235 z m -0.90625,-54.95313 c 0,-1.01172 0.83203,-1.84375 1.84375,-1.84375 H 373 c 1.01562,0 1.84375,0.83203 1.84375,1.84375 v 0.5586 c 0,1.01562 -0.82813,1.84375 -1.84375,1.84375 h -77.22266 c -1.01172,0 -1.84375,-0.82813 -1.84375,-1.84375 z m 83.11328,27.59766 c 0.0664,-1.01172 0.95313,-1.86719 1.96485,-1.89844 L 387.5,136.15625 c 1.01562,-0.0352 2.01953,0.0469 2.23828,0.17578 l 0.14063,0.19531 0.21875,0.29688 c 0.0156,0.39453 -0.0977,1.53906 -0.25,2.53906 l -3.71485,24.39453 c -0.15234,1.00391 -0.45703,2.10547 -0.67187,2.44531 -0.21875,0.34375 -1.27735,0.4961 -1.46485,0.46485 -0.1875,-0.0273 -1.16797,0.0117 -2.17968,0.0898 l -6.26563,0.47656 c -1.01172,0.0781 -1.72656,-0.67968 -1.58594,-1.68359 z m 23.125,-9.35547 c -2.23046,-3.03906 -7.5039,-4.96484 -7.5039,-4.96484 -0.94922,-0.34766 -1.85938,-0.64844 -2.01563,-0.67579 -0.15625,-0.0234 -1.11328,-0.0156 -2.125,0.0156 l -9.27734,0.30469 c -1.01563,0.0352 -1.85938,-0.76953 -1.87109,-1.78125 0,0 -0.0117,-1.27344 -0.0352,-2.17969 -0.0273,-0.90625 0.50781,-1.64844 1.18359,-1.64844 0.67578,0 1.23047,-0.82812 1.23047,-1.84375 v -10.3789 c 0,-1.01172 -0.83203,-1.84375 -1.84765,-1.84375 h -87.04297 c -1.01563,0 -1.84375,0.83203 -1.84375,1.84375 v 10.3789 c 0,1.01563 0.55468,1.84375 1.23047,1.84375 0.67578,0 1.20703,0.83203 1.17578,1.84766 0,0 -0.0156,0.55859 -0.0391,2.1914 l -0.004,0.53907 c -0.008,0.63281 -0.83985,1.125 -1.85547,1.08984 l -10.86328,-0.35547 c -1.01172,-0.0312 -1.89453,-0.0586 -1.95703,-0.0625 -0.0625,0 -0.23828,0.0156 -0.39844,0.0391 -0.15234,0.0234 -0.54297,0.0898 -0.86328,0.14063 l -0.28516,0.0625 c -0.92578,0.20312 -1.82031,0.49219 -2.67187,0.86328 -2.2461,0.98047 -4.20313,2.54297 -5.69532,4.57422 -2.22656,3.03515 -2.48828,8.64062 -2.48828,8.64062 -0.0469,1.01172 0.043,2.66407 0.19532,3.66407 l 3.71484,24.39453 c 0.15234,1.0039 0.50391,2.62109 0.78125,3.59765 0,0 0.78125,2.74219 2.11719,4.53516 1.6914,2.27734 4.04297,4 6.73047,4.92187 1.85156,0.63672 4.09375,0.67188 4.09375,0.67188 1.01562,0.0156 2.67187,0.0781 3.68359,0.14453 l 10.78906,0.69531 c 1.01563,0.0664 2.11328,0.90235 2.44922,1.85938 0,0 3.24219,9.30078 5.88672,14.08594 2.14062,3.87109 4.61719,7.34765 7.48437,10.25781 1.98047,2.01953 5.01172,4.13281 5.01172,4.13281 0.83594,0.57813 1.53125,1.0625 1.54688,1.07031 0.0195,0.0117 0.30469,0.80469 0.64062,1.76172 0,0 0.84375,2.42578 2.25,4.16406 0.94922,1.17969 1.96875,1.98047 1.96875,1.98047 0.79688,0.625 1.44922,1.96875 1.44922,2.98438 v 9.29687 c 0,1.01172 0.004,1.8711 0.004,1.90625 0,0.0352 0.004,0.21094 0.008,0.38672 l -0.0742,0.44141 c -0.043,0.25781 -0.10937,0.5625 -0.22265,0.875 -0.15235,0.43359 -0.39063,0.88672 -0.7461,1.26562 -0.26562,0.27735 -0.58984,0.50782 -0.97656,0.6836 -0.34766,0.16015 -0.75,0.28125 -1.19922,0.35547 l -0.37891,0.0625 c -0.47265,0.0156 -0.86328,0.0391 -0.86328,0.0469 0,0.0117 -0.82812,0.0195 -1.84375,0.0195 H 314.922 c -1.01171,0 -1.84375,0.82813 -1.84375,1.84375 v 4.92578 c 0,1.01563 -0.82812,1.84766 -1.84375,1.84766 h -2.89843 c -1.01563,0 -1.84766,0.82812 -1.84766,1.84375 v 5.92969 c 0,1.01172 -0.82812,1.84375 -1.84375,1.84375 h -1.89062 c -1.01563,0 -1.84375,0.82812 -1.84375,1.84375 v 15.375 c 0,1.01562 -0.33985,2.60156 -0.76172,3.52343 l -3.30469,7.32813 c -0.41797,0.92187 0.0703,1.67969 1.08594,1.67969 h 73.10156 c 1.01562,0 1.47266,-0.74219 1.01562,-1.64844 l -3.35156,-6.67188 c -0.45312,-0.90625 -0.82812,-2.48046 -0.82812,-3.49218 v -16.09375 c 0,-1.01563 -0.82813,-1.84375 -1.84375,-1.84375 h -1.89063 c -1.01562,0 -1.84375,-0.83203 -1.84375,-1.84375 v -5.92969 c 0,-1.01563 -0.83203,-1.84375 -1.84375,-1.84375 h -2.90234 c -1.01172,0 -1.84375,-0.83203 -1.84375,-1.84766 v -4.92578 c 0,-1.01562 -0.82813,-1.84375 -1.84375,-1.84375 h -3.88672 c -1.01563,0 -1.84375,-0.008 -1.84375,-0.0195 0,-0.008 -0.41016,-0.0312 -0.91016,-0.0508 l -0.39843,-0.0742 c -0.39844,-0.0703 -0.75782,-0.17578 -1.07813,-0.31641 -0.39453,-0.17578 -0.73047,-0.40234 -1.00781,-0.68359 -0.38672,-0.40625 -0.63281,-0.89062 -0.79297,-1.34766 -0.082,-0.25 -0.14063,-0.49218 -0.17969,-0.70703 l -0.0937,-0.5039 c 0.008,-0.20313 0.0117,-1.19532 0.0117,-2.21094 v -9.42578 c 0,-1.01563 0.64453,-2.36719 1.42969,-3.01172 0,0 1.57422,-1.28516 2.63672,-2.8125 1.0625,-1.53125 1.64062,-3.29297 1.64062,-3.29297 0.3125,-0.96484 0.58594,-1.76172 0.60547,-1.77344 0.0156,-0.008 0.70313,-0.50781 1.52344,-1.10547 0,0 4.32812,-3.14843 6.75781,-5.96875 3.74609,-4.33984 6.76953,-9.6914 9.20313,-15.60156 1.15625,-2.80078 2.51562,-6.97656 2.51562,-6.97656 0.31641,-0.96484 1.39844,-1.80859 2.41016,-1.87109 l 8.9414,-0.57813 c 1.01172,-0.0664 2.66797,-0.19141 3.67969,-0.28516 0,0 4.88672,-0.43359 7.53125,-2.26562 3.08594,-2.13281 5.25781,-7.77734 5.25781,-7.77734 0.36328,-0.94532 0.78516,-2.53907 0.94141,-3.54297 L 402.465,141.2852 c 0.15235,-1 0.23828,-2.65235 0.19141,-3.66407 0,0 -0.25781,-5.60547 -2.48438,-8.64062"
     id="path71" />
  <g
     style="fill:#ffffff;fill-opacity:1"
     id="g79">
    <use
       xlink:href="#glyph0-1"
       x="78.304283"
       y="56.952534"
       id="use73"
       width="100%"
       height="100%" />
    <use
       xlink:href="#glyph0-2"
       x="93.604713"
       y="56.952534"
       id="use75"
       width="100%"
       height="100%" />
    <use
       xlink:href="#glyph0-1"
       x="112.48768"
       y="56.952534"
       id="use77"
       width="100%"
       height="100%" />
  </g>
  <g
     style="fill:#ffffff;fill-opacity:1"
     id="g83">
    <use
       xlink:href="#glyph0-3"
       x="126.25806"
       y="56.952534"
       id="use81"
       width="100%"
       height="100%" />
  </g>
  <g
     style="fill:#ffffff;fill-opacity:1"
     id="g87">
    <use
       xlink:href="#glyph0-4"
       x="144.09612"
       y="56.952534"
       id="use85"
       width="100%"
       height="100%" />
  </g>
  <g
     style="fill:#ffffff;fill-opacity:1"
     id="g91">
    <use
       xlink:href="#glyph0-4"
       x="158.53822"
       y="56.952534"
       id="use89"
       width="100%"
       height="100%" />
  </g>
  <g
     style="fill:#ffffff;fill-opacity:1"
     id="g95">
    <use
       xlink:href="#glyph0-5"
       x="171.11443"
       y="56.952534"
       id="use93"
       width="100%"
       height="100%" />
  </g>
  <g
     style="fill:#ffffff;fill-opacity:1"
     id="g99">
    <use
       xlink:href="#glyph0-6"
       x="188.61662"
       y="56.952534"
       id="use97"
       width="100%"
       height="100%" />
  </g>
  <g
     style="fill:#ffffff;fill-opacity:1"
     id="g103">
    <use
       xlink:href="#glyph0-3"
       x="194.81143"
       y="56.952534"
       id="use101"
       width="100%"
       height="100%" />
  </g>
  <g
     style="fill:#ffffff;fill-opacity:1"
     id="g107">
    <use
       xlink:href="#glyph0-7"
       x="210.78358"
       y="56.952534"
       id="use105"
       width="100%"
       height="100%" />
  </g>
  <g
     style="fill:#ffffff;fill-opacity:1"
     id="g111">
    <use
       xlink:href="#glyph0-8"
       x="240.00366"
       y="56.952534"
       id="use109"
       width="100%"
       height="100%" />
  </g>
  <g
     style="fill:#ffffff;fill-opacity:1"
     id="g115">
    <use
       xlink:href="#glyph0-9"
       x="255.34142"
       y="56.952534"
       id="use113"
       width="100%"
       height="100%" />
  </g>
  <g
     style="fill:#ffffff;fill-opacity:1"
     id="g119">
    <use
       xlink:href="#glyph0-2"
       x="273.58997"
       y="56.952534"
       id="use117"
       width="100%"
       height="100%" />
  </g>
  <g
     style="fill:#ffffff;fill-opacity:1"
     id="g123">
    <use
       xlink:href="#glyph0-10"
       x="292.69684"
       y="56.952534"
       id="use121"
       width="100%"
       height="100%" />
  </g>
  <g
     style="fill:#ffffff;fill-opacity:1"
     id="g127">
    <use
       xlink:href="#glyph0-8"
       x="320.23761"
       y="56.952534"
       id="use125"
       width="100%"
       height="100%" />
  </g>
  <g
     style="fill:#ffffff;fill-opacity:1"
     id="g131">
    <use
       xlink:href="#glyph0-11"
       x="335.57535"
       y="56.952534"
       id="use129"
       width="100%"
       height="100%" />
  </g>
  <flowRoot
     style="font-style:normal;font-weight:normal;line-height:1.25;font-family:sans-serif;letter-spacing:0px;word-spacing:0px;fill:#000000;fill-opacity:1;stroke:none"
     id="flowRoot944"
     xml:space="preserve"
     transform="matrix(0.75,0,0,0.75,-150.68646,-2.5520676)"><flowRegion
       id="flowRegion946"><rect
         y="132.84409"
         x="217.7634"
         height="238.78304"
         width="322.02078"
         id="rect948" /></flowRegion><flowPara
       style="font-style:normal;font-variant:normal;font-weight:normal;font-stretch:normal;font-size:$FONT_SIZEpx;font-family:'Finger Paint';-inkscape-font-specification:'Finger Paint'"
       id="flowPara950">$TEXT</flowPara></flowRoot></svg>
