<?xml version="1.0" encoding="UTF-8" standalone="no"?>
<svg
   xmlns:dc="http://purl.org/dc/elements/1.1/"
   xmlns:cc="http://creativecommons.org/ns#"
   xmlns:rdf="http://www.w3.org/1999/02/22-rdf-syntax-ns#"
   xmlns:svg="http://www.w3.org/2000/svg"
   xmlns="http://www.w3.org/2000/svg"
   xmlns:xlink="http://www.w3.org/1999/xlink"
   id="svg138"
   version="1.2"
   viewBox="0 0 419.527 297.638"
   height="297.638pt"
   width="419.527pt">
  <metadata
     id="metadata142">
    <rdf:RDF>
      <cc:Work
         rdf:about="">
        <dc:format>image/svg+xml</dc:format>
        <dc:type
           rdf:resource="http://purl.org/dc/dcmitype/StillImage" />
        <dc:title></dc:title>
      </cc:Work>
    </rdf:RDF>
  </metadata>
  <defs
     id="defs49">
    <g
       id="g41">
      <symbol
         id="glyph0-0"
         overflow="visible">
        <path
           id="path2"
           d="M 1.125 10.9375 L 15.1875 10.9375 L 15.1875 -26.15625 L 1.125 -26.15625 Z M 1.125 10.9375 "
           style="stroke:none;" />
      </symbol>
      <symbol
         id="glyph0-1"
         overflow="visible">
        <path
           id="path5"
           d="M 9.359375 0.296875 C 14.0625 0.296875 17.34375 -2.34375 17.34375 -6.859375 L 17.34375 -9.65625 C 17.34375 -10 17.15625 -10.21875 16.796875 -10.21875 L 11.828125 -10.21875 C 11.5 -10.21875 11.265625 -10 11.265625 -9.65625 L 11.265625 -7.578125 C 11.265625 -6.15625 10.75 -5.15625 9.359375 -5.15625 C 7.953125 -5.15625 7.46875 -6.15625 7.46875 -7.578125 L 7.46875 -20.40625 C 7.46875 -21.828125 7.953125 -22.828125 9.359375 -22.828125 C 10.75 -22.828125 11.265625 -21.828125 11.265625 -20.40625 L 11.265625 -18.328125 C 11.265625 -17.984375 11.5 -17.765625 11.828125 -17.765625 L 16.796875 -17.765625 C 17.15625 -17.765625 17.34375 -17.984375 17.34375 -18.328125 L 17.34375 -21.125 C 17.34375 -25.671875 14.0625 -28.28125 9.359375 -28.28125 C 4.625 -28.28125 1.34375 -25.671875 1.34375 -21.125 L 1.34375 -6.859375 C 1.34375 -2.34375 4.625 0.296875 9.359375 0.296875 Z M 9.359375 0.296875 "
           style="stroke:none;" />
      </symbol>
      <symbol
         id="glyph0-2"
         overflow="visible">
        <path
           id="path8"
           d="M 9.359375 0.296875 C 14.0625 0.296875 17.34375 -2.34375 17.34375 -6.984375 L 17.34375 -21 C 17.34375 -25.671875 14.0625 -28.28125 9.359375 -28.28125 C 4.625 -28.28125 1.34375 -25.671875 1.34375 -21 L 1.34375 -6.984375 C 1.34375 -2.34375 4.625 0.296875 9.359375 0.296875 Z M 9.359375 -5.15625 C 7.953125 -5.15625 7.46875 -6.15625 7.46875 -7.71875 L 7.46875 -20.265625 C 7.46875 -21.828125 7.953125 -22.828125 9.359375 -22.828125 C 10.78125 -22.828125 11.265625 -21.828125 11.265625 -20.265625 L 11.265625 -7.71875 C 11.265625 -6.15625 10.78125 -5.15625 9.359375 -5.15625 Z M 9.359375 -5.15625 "
           style="stroke:none;" />
      </symbol>
      <symbol
         id="glyph0-3"
         overflow="visible">
        <path
           id="path11"
           d="M 2.28125 0 L 7.015625 0 C 7.34375 0 7.578125 -0.21875 7.578125 -0.5625 L 7.578125 -12.3125 C 7.578125 -12.53125 7.828125 -12.609375 7.953125 -12.390625 L 12.90625 -0.453125 C 13.0625 -0.078125 13.328125 0 13.65625 0 L 18.25 0 C 18.578125 0 18.8125 -0.1875 18.8125 -0.515625 L 18.8125 -27.421875 C 18.8125 -27.765625 18.578125 -27.984375 18.25 -27.984375 L 13.546875 -27.984375 C 13.203125 -27.984375 12.984375 -27.765625 12.984375 -27.421875 L 12.984375 -15.5625 C 12.984375 -15.328125 12.71875 -15.265625 12.609375 -15.484375 L 7.65625 -27.5 C 7.46875 -27.90625 7.3125 -27.984375 6.90625 -27.984375 L 2.28125 -27.984375 C 1.9375 -27.984375 1.71875 -27.765625 1.71875 -27.421875 L 1.71875 -0.5625 C 1.71875 -0.21875 1.9375 0 2.28125 0 Z M 2.28125 0 "
           style="stroke:none;" />
      </symbol>
      <symbol
         id="glyph0-4"
         overflow="visible">
        <path
           id="path14"
           d="M 9.359375 0.296875 C 14.0625 0.296875 17.34375 -2.34375 17.34375 -6.859375 L 17.34375 -15 C 17.34375 -15.328125 17.125 -15.5625 16.796875 -15.5625 L 9.921875 -15.5625 C 9.59375 -15.5625 9.359375 -15.328125 9.359375 -15 L 9.359375 -10.640625 C 9.359375 -10.265625 9.59375 -10.078125 9.921875 -10.078125 L 10.703125 -10.078125 C 11.046875 -10.078125 11.265625 -9.84375 11.265625 -9.515625 L 11.265625 -7.578125 C 11.265625 -6.15625 10.75 -5.15625 9.359375 -5.15625 C 7.953125 -5.15625 7.46875 -6.15625 7.46875 -7.578125 L 7.46875 -20.40625 C 7.46875 -21.828125 7.953125 -22.828125 9.359375 -22.828125 C 10.75 -22.828125 11.265625 -21.828125 11.265625 -20.40625 L 11.265625 -18.8125 C 11.265625 -18.46875 11.5 -18.25 11.828125 -18.25 L 16.796875 -18.25 C 17.15625 -18.25 17.34375 -18.46875 17.34375 -18.8125 L 17.34375 -21.125 C 17.34375 -25.671875 14.0625 -28.28125 9.359375 -28.28125 C 4.625 -28.28125 1.34375 -25.671875 1.34375 -21.125 L 1.34375 -6.859375 C 1.34375 -2.34375 4.625 0.296875 9.359375 0.296875 Z M 9.359375 0.296875 "
           style="stroke:none;" />
      </symbol>
      <symbol
         id="glyph0-5"
         overflow="visible">
        <path
           id="path17"
           d="M 2.28125 0 L 7.28125 0 C 7.65625 0 7.828125 -0.21875 7.828125 -0.5625 L 7.828125 -9.625 C 7.828125 -9.96875 8.0625 -10.1875 8.390625 -10.1875 L 9.40625 -10.1875 C 9.734375 -10.1875 9.890625 -9.96875 9.96875 -9.625 L 11.609375 -0.5625 C 11.71875 0 11.9375 0 12.421875 0 L 17.09375 0 C 17.390625 0 17.6875 -0.1875 17.53125 -0.78125 L 15.296875 -11.453125 C 15.21875 -11.796875 15.375 -11.984375 15.59375 -12.15625 C 16.90625 -13.25 17.71875 -15.515625 17.71875 -17.46875 L 17.71875 -20.703125 C 17.71875 -25.328125 14.4375 -27.984375 9.734375 -27.984375 L 2.28125 -27.984375 C 1.90625 -27.984375 1.71875 -27.765625 1.71875 -27.421875 L 1.71875 -0.5625 C 1.71875 -0.21875 1.9375 0 2.28125 0 Z M 8.390625 -15.640625 C 8.0625 -15.640625 7.828125 -15.859375 7.828125 -16.1875 L 7.828125 -21.9375 C 7.828125 -22.28125 8.0625 -22.5 8.390625 -22.5 L 9.734375 -22.5 C 11.15625 -22.5 11.640625 -21.484375 11.640625 -19.96875 L 11.640625 -18.203125 C 11.640625 -16.640625 11.15625 -15.640625 9.734375 -15.640625 Z M 8.390625 -15.640625 "
           style="stroke:none;" />
      </symbol>
      <symbol
         id="glyph0-6"
         overflow="visible">
        <path
           id="path20"
           d="M 0.828125 0 L 5.328125 0 C 5.671875 0 5.828125 -0.109375 5.890625 -0.5625 L 6.265625 -2.765625 C 6.3125 -2.984375 6.375 -3.328125 6.828125 -3.328125 L 10.640625 -3.328125 C 11.078125 -3.328125 11.15625 -2.984375 11.1875 -2.765625 L 11.5625 -0.5625 C 11.640625 -0.109375 11.796875 0 12.125 0 L 16.640625 0 C 17.015625 0 17.203125 -0.1875 17.125 -0.640625 L 11.828125 -27.3125 C 11.71875 -27.875 11.609375 -27.984375 11 -27.984375 L 6.453125 -27.984375 C 5.859375 -27.984375 5.75 -27.875 5.640625 -27.3125 L 0.328125 -0.640625 C 0.265625 -0.1875 0.453125 0 0.828125 0 Z M 7.5 -8.46875 C 7.234375 -8.46875 7.15625 -8.625 7.203125 -8.875 L 8.546875 -17.125 C 8.578125 -17.34375 8.875 -17.34375 8.921875 -17.125 L 10.21875 -8.875 C 10.265625 -8.625 10.1875 -8.46875 9.921875 -8.46875 Z M 7.5 -8.46875 "
           style="stroke:none;" />
      </symbol>
      <symbol
         id="glyph0-7"
         overflow="visible">
        <path
           id="path23"
           d="M 5.03125 0 L 10 0 C 10.375 0 10.5625 -0.21875 10.5625 -0.5625 L 10.5625 -21.9375 C 10.5625 -22.28125 10.78125 -22.5 11.125 -22.5 L 13.953125 -22.5 C 14.296875 -22.5 14.515625 -22.71875 14.515625 -23.0625 L 14.515625 -27.421875 C 14.515625 -27.796875 14.296875 -27.984375 13.953125 -27.984375 L 1.1875 -27.984375 C 0.859375 -27.984375 0.640625 -27.765625 0.640625 -27.421875 L 0.640625 -23.0625 C 0.640625 -22.6875 0.859375 -22.5 1.1875 -22.5 L 3.921875 -22.5 C 4.25 -22.5 4.484375 -22.28125 4.484375 -21.9375 L 4.484375 -0.5625 C 4.484375 -0.21875 4.703125 0 5.03125 0 Z M 5.03125 0 "
           style="stroke:none;" />
      </symbol>
      <symbol
         id="glyph0-8"
         overflow="visible">
        <path
           id="path26"
           d="M 9.359375 0.296875 C 14.0625 0.296875 17.34375 -2.34375 17.34375 -6.984375 L 17.34375 -27.421875 C 17.34375 -27.765625 17.125 -27.984375 16.796875 -27.984375 L 11.828125 -27.984375 C 11.453125 -27.984375 11.265625 -27.765625 11.265625 -27.421875 L 11.265625 -7.71875 C 11.265625 -6.15625 10.78125 -5.15625 9.359375 -5.15625 C 7.953125 -5.15625 7.46875 -6.15625 7.46875 -7.71875 L 7.46875 -27.421875 C 7.46875 -27.765625 7.234375 -27.984375 6.90625 -27.984375 L 1.90625 -27.984375 C 1.53125 -27.984375 1.34375 -27.765625 1.34375 -27.421875 L 1.34375 -6.984375 C 1.34375 -2.34375 4.625 0.296875 9.359375 0.296875 Z M 9.359375 0.296875 "
           style="stroke:none;" />
      </symbol>
      <symbol
         id="glyph0-9"
         overflow="visible">
        <path
           id="path29"
           d="M 1.71875 -0.5625 C 1.71875 -0.21875 1.9375 0 2.28125 0 L 12.90625 0 C 13.25 0 13.46875 -0.21875 13.46875 -0.5625 L 13.46875 -4.84375 C 13.46875 -5.1875 13.25 -5.40625 12.90625 -5.40625 L 8.390625 -5.40625 C 8.0625 -5.40625 7.828125 -5.640625 7.828125 -5.96875 L 7.828125 -27.421875 C 7.828125 -27.765625 7.609375 -27.984375 7.28125 -27.984375 L 2.28125 -27.984375 C 1.90625 -27.984375 1.71875 -27.765625 1.71875 -27.421875 Z M 1.71875 -0.5625 "
           style="stroke:none;" />
      </symbol>
      <symbol
         id="glyph0-10"
         overflow="visible">
        <path
           id="path32"
           d="M 2.28125 0 L 7.28125 0 C 7.65625 0 7.828125 -0.21875 7.828125 -0.5625 L 7.828125 -27.421875 C 7.828125 -27.765625 7.609375 -27.984375 7.28125 -27.984375 L 2.28125 -27.984375 C 1.90625 -27.984375 1.71875 -27.765625 1.71875 -27.421875 L 1.71875 -0.5625 C 1.71875 -0.21875 1.9375 0 2.28125 0 Z M 2.28125 0 "
           style="stroke:none;" />
      </symbol>
      <symbol
         id="glyph0-11"
         overflow="visible">
        <path
           id="path35"
           d="M 8.921875 0.296875 C 13.65625 0.296875 16.9375 -2.34375 16.9375 -6.984375 L 16.9375 -8.5 C 16.9375 -12.65625 13.546875 -14.625 11.046875 -16.15625 C 8.5 -17.65625 7.015625 -18.65625 7.015625 -20 L 7.015625 -20.78125 C 7.015625 -21.9375 7.53125 -22.828125 8.921875 -22.828125 C 10.328125 -22.828125 10.859375 -21.828125 10.859375 -20.265625 L 10.859375 -19.484375 C 10.859375 -19.140625 11.046875 -18.921875 11.421875 -18.921875 L 16.375 -18.921875 C 16.75 -18.921875 16.9375 -19.140625 16.9375 -19.484375 L 16.9375 -21 C 16.9375 -25.671875 13.65625 -28.28125 8.921875 -28.28125 C 4.21875 -28.28125 0.9375 -25.671875 0.9375 -21 L 0.9375 -19.484375 C 0.9375 -15.328125 4.328125 -13.390625 6.828125 -11.859375 C 9.328125 -10.375 10.859375 -9.328125 10.859375 -7.984375 L 10.859375 -7.203125 C 10.859375 -6 10.328125 -5.15625 8.921875 -5.15625 C 7.53125 -5.15625 7.015625 -6.15625 7.015625 -7.578125 L 7.015625 -8.5 C 7.015625 -8.84375 6.796875 -9.0625 6.453125 -9.0625 L 1.5 -9.0625 C 1.125 -9.0625 0.9375 -8.84375 0.9375 -8.5 L 0.9375 -6.984375 C 0.9375 -2.34375 4.21875 0.296875 8.921875 0.296875 Z M 8.921875 0.296875 "
           style="stroke:none;" />
      </symbol>
      <symbol
         id="glyph0-12"
         overflow="visible">
        <path
           id="path38"
           d="M 3.359375 -9 L 6.34375 -9 C 6.71875 -9 6.859375 -9.21875 6.90625 -9.546875 L 7.875 -27.421875 C 7.90625 -27.765625 7.65625 -27.984375 7.3125 -27.984375 L 2.34375 -27.984375 C 1.984375 -27.984375 1.75 -27.765625 1.796875 -27.421875 L 2.796875 -9.546875 C 2.828125 -9.21875 3.015625 -9 3.359375 -9 Z M 4.84375 0.03125 C 6.671875 0.03125 8.140625 -1.375 8.140625 -3.203125 C 8.140625 -5.03125 6.671875 -6.5 4.84375 -6.5 C 3.015625 -6.5 1.609375 -5.03125 1.609375 -3.203125 C 1.609375 -1.375 3.015625 0.03125 4.84375 0.03125 Z M 4.84375 0.03125 "
           style="stroke:none;" />
      </symbol>
    </g>
    <clipPath
       id="clip1">
      <path
         id="path43"
         d="M 0.0195312 0 L 419.035156 0 L 419.035156 85 L 0.0195312 85 Z M 0.0195312 0 " />
    </clipPath>
    <clipPath
       id="clip2">
      <path
         id="path46"
         d="M 19 72 L 189 72 L 189 297.277344 L 19 297.277344 Z M 19 72 " />
    </clipPath>
  </defs>
  <g
     clip-path="url(#clip1)"
     id="g53"
     style="clip-rule:nonzero">
    <path
       style="fill:#33b563;fill-opacity:1;fill-rule:nonzero;stroke:none"
       d="M 0.0195312,84.683594 H 419.03516 V 0 H 0.0195312 Z m 0,0"
       id="path51" />
  </g>
  <path
     style="fill:#3fbfe8;fill-opacity:1;fill-rule:nonzero;stroke:none"
     d="m 91.585938,203.43359 c 0.08594,-1.25781 -0.378907,-2.51953 -1.296876,-3.47265 -0.02344,-0.0195 -2.199218,-2.28907 -3.703124,-5.1211 -2.039063,-3.84765 -3.074219,-8.19531 -2.988282,-12.57031 0.101563,-5.15234 3.0625,-11.125 3.09375,-11.18359 0.597656,-1.1875 0.660156,-2.53125 0.191406,-3.70313 0.02734,-0.0391 0.05078,-0.0781 0.07813,-0.11719 -0.05469,-0.0273 -0.113282,-0.0508 -0.167969,-0.0781 -0.515625,-1.125 -1.507813,-2 -2.753907,-2.39844 -0.300781,-0.0937 -7.453124,-2.33594 -13.148437,-0.96094 -6.207031,1.48829 -11.460937,5.3086 -14.796875,10.75391 -3.332031,5.44531 -4.34375,11.85938 -2.851562,18.06641 2.632812,10.9375 12.445312,18.30859 23.234374,18.30859 1.84375,0 3.71875,-0.21484 5.585938,-0.66406 4.015625,-0.96485 7.460938,-3.40625 7.605469,-3.50781 1.066406,-0.76563 1.746093,-1.91016 1.894531,-3.14844 0.03906,-0.0352 0.08203,-0.0703 0.125,-0.10547 -0.03906,-0.0312 -0.07031,-0.0664 -0.101562,-0.0977"
     id="path55" />
  <path
     style="fill:#e6e807;fill-opacity:1;fill-rule:nonzero;stroke:none"
     d="m 103.38672,139.89062 c -0.29688,-0.58203 -0.98828,-1.49609 -2.28516,-3.22265 -0.0664,-0.0937 -1.72656,-2.28516 -4.453122,-4.21094 -5.214844,-3.68359 -11.546876,-5.11328 -17.835938,-4.03125 -6.285156,1.08203 -11.773438,4.55078 -15.457031,9.76953 -3.6875,5.21875 -5.125,11.55469 -4.042969,17.83985 0.472656,2.7539 1.210938,4.37109 1.238281,4.4375 0.558594,1.21093 1.558594,2.13671 2.816407,2.59765 1.257812,0.46094 2.617187,0.41016 3.824218,-0.15234 0.0078,-0.004 1.070313,-0.48047 3.234375,-1 6.382813,-1.53125 15.835938,1.69922 15.929688,1.73437 0.695312,0.23828 1.472656,0.35157 2.273437,0.35157 1.878906,0 3.886719,-0.63282 5.203125,-1.74219 0.01953,-0.0117 1.792969,-1.5 4.324219,-2.73828 2.125,-1.03516 3.68359,-1.42969 3.69531,-1.42969 2.4961,-0.61328 4.64063,-3.09766 4.875,-5.66016 0.004,-0.0703 0.15625,-1.79297 -0.3125,-4.50781 -0.49218,-2.85937 -1.3164,-4.61719 -1.35156,-4.69141 -0.94141,-1.98046 -1.39062,-2.88671 -1.67578,-3.34375"
     id="path57" />
  <path
     style="fill:#3fbfe8;fill-opacity:1;fill-rule:nonzero;stroke:none"
     d="m 144.95703,111.11719 c -0.85156,0.71484 -2.85937,2.42578 -3.19922,2.85547 -0.36719,0.47656 -0.78906,1.01562 0.74219,5.09765 0.004,0.0156 0.60937,1.66407 0.94531,4.13282 0.48047,3.5039 -0.25781,7.59374 -0.26562,7.63671 -0.47657,2.57422 1.54687,6.59766 2.23047,7.46094 1.22265,1.5625 4.02734,1.50781 6.17187,0.64063 0.0508,-0.0195 5.53906,-2.23047 10.17188,-2.13282 5.70312,0.10938 12.82031,4.10938 12.89453,4.14844 0.71875,0.41016 1.51172,0.61719 2.29687,0.61719 0.47656,0 0.94141,-0.0781 1.39063,-0.23438 0.0352,0.0312 0.0742,0.0547 0.10937,0.082 0.0312,-0.0508 0.0547,-0.10546 0.082,-0.15625 1.15235,-0.46093 2.07813,-1.41015 2.53516,-2.64062 0.0742,-0.19531 1.78125,-4.82031 1.57031,-9.12891 -0.28125,-5.8125 -2.64844,-11.30468 -6.66406,-15.45703 -4.43359,-4.58984 -10.39453,-7.17968 -16.77734,-7.28906 -4.08985,-0.0469 -8.19141,0.91797 -11.78516,2.87109 -1.76563,0.95704 -2.32031,1.38672 -2.44922,1.4961"
     id="path59" />
  <path
     style="fill:#8763b8;fill-opacity:1;fill-rule:nonzero;stroke:none"
     d="m 65.484375,107.45703 c 0.07813,0.0391 8.125,3.92969 11.597656,9.21094 0.902344,1.375 1.683594,2.85156 2.3125,4.39453 l 0.519531,1.26953 c 0.625,2.09766 2.714844,3.75 4.824219,3.8125 l 2.660157,0.32422 c 0.277343,0.0586 0.554687,0.0898 0.828124,0.0898 0.761719,0 1.511719,-0.22656 2.175782,-0.67187 1.109375,-0.73047 1.871094,-1.98438 2.097656,-3.43359 0.0078,-0.0469 0.792969,-4.98047 2.863281,-8.60157 2.738281,-4.78125 9.242189,-9.00781 9.308599,-9.05078 2.26562,-1.45312 3.18359,-4.51953 2.09375,-6.980468 -0.10157,-0.222656 -2.46485,-5.503906 -6.07422,-8.589843 -4.210941,-3.597657 -9.554691,-5.636719 -15.050785,-5.746094 -6.402344,-0.132813 -12.4375,2.253906 -17.027344,6.671875 -3.984375,3.828125 -5.988281,10.36328 -6.074219,10.63672 -0.777343,2.57812 0.515626,5.50391 2.945313,6.66406"
     id="path61" />
  <path
     style="fill:#f8a60a;fill-opacity:1;fill-rule:nonzero;stroke:none"
     d="m 113.62109,131.60156 c 3.79688,-1.9414 8.04297,-2.95312 12.27735,-2.85937 4.6875,0.0898 9.95312,2.45312 10.00781,2.47656 1.23828,0.56641 2.53906,0.55469 3.59766,-0.008 0.0781,0.043 0.15625,0.082 0.23046,0.1289 0.0195,-0.10547 0.0352,-0.21093 0.0586,-0.3164 0.97656,-0.64844 1.61328,-1.74219 1.73437,-3.06641 0.0156,-0.14453 0.32422,-3.62109 -0.53906,-7.07812 -1.59375,-6.35938 -5.60937,-11.66016 -11.3125,-14.92578 -5.53906,-3.16797 -11.98047,-3.99219 -18.14062,-2.31641 -6.16016,1.67969 -11.29688,5.65234 -14.464848,11.19141 -2.265624,3.95312 -2.765624,8.99609 -2.785156,9.21093 -0.242187,2.51172 0.839844,5.1211 2.515625,6.1211 l 0.980469,0.6914 c 2.38281,1.6875 3.98828,3.56641 4.00391,3.58594 0.86328,1.02344 2.0664,1.63281 3.38672,1.72656 0.008,0.008 0.0156,0.0156 0.0195,0.0273 0.008,-0.008 0.0156,-0.0156 0.0234,-0.0234 0.10157,0.008 0.20313,0.0117 0.3086,0.0117 1.21094,0 2.36328,-0.44532 3.27344,-1.27735 0.0391,-0.0352 2.15625,-1.9375 4.82421,-3.30078"
     id="path63" />
  <path
     style="fill:#f359ab;fill-opacity:1;fill-rule:nonzero;stroke:none"
     d="m 109.57031,155.82422 c 0.60938,0.70703 1.45313,1.125 2.38672,1.1914 l 0.97266,0.13282 c 5.02344,0.67578 10.63672,4.29297 10.69531,4.32812 1.23438,0.80469 2.96094,1.23438 4.62891,1.23438 1.05859,0 2.09765,-0.17578 2.96484,-0.53516 0.0352,-0.0156 3.33594,-1.375 6.67187,-1.69141 2.88282,-0.26953 5.55469,0.16407 5.57813,0.16797 2.70312,0.44532 5.29297,-1.21875 5.75781,-3.72656 l 0.0586,-1.86328 c 0.2539,-13.17578 -10.25391,-24.10156 -23.42578,-24.35938 -3.67579,-0.0703 -7.39063,0.72657 -10.72266,2.3125 -3.28125,1.5625 -5.79297,4.0586 -5.89844,4.16407 -1.78125,1.77734 -2.47656,5.01562 -1.59375,7.36328 0.004,0.008 0.34375,0.94531 0.70313,3.04687 0.26172,1.52344 0.39062,3.07422 0.3789,4.60547 l -0.008,1.02735 c -0.0742,0.96093 0.23047,1.88281 0.85156,2.60156"
     id="path65" />
  <path
     style="fill:#ee2b30;fill-opacity:1;fill-rule:nonzero;stroke:none"
     d="m 108.86719,97.449219 c 1.00781,2.386719 3.70703,3.898441 6.22265,3.480471 l 1.60938,-0.0742 c 4.85937,-0.21875 9.6875,0.95312 13.94922,3.39453 3.24609,1.85547 5.91015,4.82422 5.93359,4.85156 1.14453,1.28907 2.62109,1.97657 3.97656,1.97657 0.82813,0 1.60547,-0.25391 2.23438,-0.78125 l 0.93359,-0.67579 c 1.55469,-1.11328 2.1836,-1.43359 2.1836,-1.43359 2.24609,-1.07422 4.04687,-3.86328 4.10546,-6.35547 0.008,-0.22656 0.11329,-5.624999 -1.29687,-9.816405 -2.03125,-6.054687 -6.46875,-11.121094 -12.16406,-13.90625 -5.74219,-2.800781 -12.22266,-3.199219 -18.25781,-1.121094 -2.57813,0.882813 -4.95313,2.179688 -7.06641,3.847657 -2.73828,2.164062 -4.52734,4.9375 -4.60547,5.054687 -1.34375,2.105469 -1.30859,5.355469 0.0742,7.441406 z m 0,0"
     id="path67" />
  <path
     style="fill:#8763b8;fill-opacity:1;fill-rule:nonzero;stroke:none"
     d="m 146.36719,163.11719 c -5.40235,-1.40625 -12.1211,0.35937 -12.40625,0.43359 -1.26563,0.33594 -2.26172,1.15234 -2.78907,2.23438 -0.082,0.0352 -0.16406,0.0625 -0.24218,0.10156 0.0391,0.0508 0.0742,0.10937 0.11718,0.16406 -0.44921,1.14453 -0.35156,2.46484 0.29297,3.64063 0.043,0.0742 4.08985,7.51171 3.97266,13.58984 -0.0898,4.375 -1.28906,8.67578 -3.47656,12.44141 -1.55078,2.67187 -3.65625,4.74218 -3.67578,4.76171 -0.96094,0.9336 -1.44532,2.16016 -1.35157,3.38282 -0.0547,0.043 -0.10156,0.0937 -0.15234,0.13672 0.0547,0.0469 0.12109,0.0859 0.18359,0.1289 0.17579,1.20313 0.90625,2.28906 2.03516,2.99219 0.0898,0.0586 2.28906,1.41797 5.42578,2.23437 2.01172,0.52735 4.05078,0.78516 6.07813,0.78516 4.1914,0 8.32421,-1.11328 12.03906,-3.28906 5.50781,-3.22656 9.42578,-8.40625 11.03906,-14.58203 1.60938,-6.17578 0.72266,-12.60938 -2.50781,-18.11719 -3.22656,-5.50781 -8.40235,-9.42578 -14.58203,-11.03906"
     id="path69" />
  <path
     style="fill:#f359ab;fill-opacity:1;fill-rule:nonzero;stroke:none"
     d="m 35.988281,144.73437 0.07422,0.10547 c 0.734375,0.92188 2.144531,1.28907 3.617188,1.28907 0.8125,0 1.644531,-0.11329 2.390624,-0.30079 0.02344,-0.008 2.691407,-0.67578 5.742188,-0.60546 2.710938,0.0547 4.742188,0.57812 4.761719,0.58593 2.613281,0.6836 5.476562,-0.72265 6.515625,-3.21875 0.02734,-0.0625 2.640625,-6.2539 6.199218,-9.5664 3.242188,-3.01563 9.019532,-5.15625 9.078126,-5.17969 2.582031,-0.94141 3.945312,-3.82422 3.039062,-6.42187 -0.05078,-0.14844 -0.550781,-1.52735 -1.964844,-3.67579 -7.242187,-11.00781 -22.089844,-14.07031 -33.097656,-6.82812 -11.007812,7.24219 -14.070312,22.08984 -6.828125,33.09765 z m 0,0"
     id="path71" />
  <path
     style="fill:#e6e807;fill-opacity:1;fill-rule:nonzero;stroke:none"
     d="m 178.47266,146.09766 c -4.42579,-4.59766 -10.375,-7.20313 -16.75391,-7.32813 -4.33203,-0.0937 -8.60547,1.61719 -8.78516,1.69141 -2.51562,1.01562 -3.86328,3.9375 -2.99218,6.50781 0.0117,0.043 1.38281,4.17969 1.30468,8.13672 -0.0391,1.91015 -0.15234,2.58984 -0.15234,2.58984 -0.49219,2.48828 0.77734,5.53516 2.89062,6.9336 0.0625,0.0391 6.01172,4.01171 8.66407,8.53515 1.97656,3.375 2.83203,7.75781 2.83984,7.80469 0.25391,1.32031 1.01563,2.38281 2.08594,2.95703 0.008,0.0781 0.0156,0.16016 0.0234,0.23828 0.0937,-0.0312 0.18359,-0.0703 0.28125,-0.0977 0.47656,0.20312 0.98437,0.32421 1.51171,0.32421 0.67188,0 1.36719,-0.16796 2.02735,-0.5 0.26953,-0.13281 6.60156,-3.34765 9.64453,-7.85546 2.57812,-3.8125 3.98828,-8.27735 4.07812,-12.89844 0.125,-6.38672 -2.24218,-12.4375 -6.66796,-17.03906"
     id="path73" />
  <path
     style="fill:#ee2b30;fill-opacity:1;fill-rule:nonzero;stroke:none"
     d="m 126.67188,166.21875 c -4.42969,-4.60547 -10.37891,-7.21094 -16.75,-7.33594 l -0.47266,-0.004 c -12.91797,0 -23.632814,10.51171 -23.88672,23.42968 -0.125,6.375 2.246094,12.41797 6.675781,17.02344 4.429688,4.60547 10.378909,7.21094 16.742189,7.33594 0.15625,0.004 0.32031,0.004 0.48047,0.004 12.91797,0 23.63281,-10.51171 23.88672,-23.42968 0.12109,-6.3711 -2.2461,-12.41797 -6.67578,-17.02344"
     id="path75" />
  <path
     style="fill:#f8a60a;fill-opacity:1;fill-rule:nonzero;stroke:none"
     d="m 54.421875,173.55859 c 1.527344,-2.49609 3.3125,-4.23437 3.332031,-4.25 1.855469,-1.78515 2.449219,-5.00781 1.347656,-7.33593 -0.01172,-0.0273 -1.203124,-2.57422 -1.722656,-5.60547 -0.328125,-1.89844 -0.34375,-2.58203 -0.34375,-2.58203 0.01953,-2.60157 -1.917968,-5.22657 -4.414062,-5.96485 -0.07813,-0.0273 -1.957032,-0.57422 -4.851563,-0.63281 -3.976562,-0.043 -7.640625,1.25 -7.796875,1.30859 -2.648437,0.96094 -3.382812,1.22657 -3.699218,1.42188 -0.25,0.1289 -0.523438,0.29687 -0.828126,0.48047 l -2.140624,1.29297 c -0.136719,0.0859 -0.921876,0.58984 -2.5625,2.16796 -4.597657,4.42579 -7.203126,10.37891 -7.324219,16.76172 -0.125,6.37891 2.242187,12.42969 6.667969,17.02735 4.421874,4.60156 10.375,7.20312 16.75,7.32812 L 47.925781,195 48,194.99609 c 1.941406,-0.16406 3.328125,-2.40625 3.226562,-5.22265 -0.0039,-0.10157 -0.320312,-10.47266 3.195313,-16.21485"
     id="path77" />
  <g
     clip-path="url(#clip2)"
     id="g81"
     style="clip-rule:nonzero">
    <path
       style="fill:#0f0c0c;fill-opacity:1;fill-rule:nonzero;stroke:none"
       d="m 179.83984,175.28906 c -2.86328,4.23828 -9.49609,7.57031 -9.49609,7.57031 -1.51172,0.76172 -3.00391,0.0234 -3.32031,-1.63671 0,0 -0.96875,-5.07813 -3.10547,-8.72657 -2.85547,-4.87109 -9.50391,-9.26953 -9.50391,-9.26953 -1.40625,-0.93359 -2.29297,-3.05469 -1.96484,-4.71484 0,0 0.23047,-1.14453 0.27344,-3.30078 0.082,-4.27344 -1.53516,-9.07032 -1.53516,-9.07032 -0.53906,-1.60156 0.30469,-3.42968 1.87109,-4.0625 0,0 4.54688,-1.83593 8.625,-1.7539 5.99219,0.11328 11.57813,2.55469 15.72657,6.875 4.15234,4.3164 6.375,9.99609 6.25781,15.98437 -0.0859,4.46485 -1.47656,8.62891 -3.82813,12.10547 m -17.80859,16.69141 c -1.51172,5.79687 -5.1875,10.65625 -10.35938,13.68359 -5.16796,3.02735 -11.20703,3.85938 -17,2.35156 -2.95703,-0.77343 -5.41015,-2.30468 -5.41015,-2.30468 -1.43359,-0.89453 -1.61719,-2.59375 -0.40625,-3.77344 0,0 2.57422,-2.50391 4.2539,-5.39453 2.25,-3.87891 3.57813,-8.36328 3.67579,-13.15625 0.125,-6.5586 -4.375,-14.73047 -4.375,-14.73047 -0.81641,-1.48047 -0.14454,-3.05078 1.48828,-3.48438 0,0 7.01172,-1.8789 12.09765,-0.55078 5.79688,1.51172 10.65625,5.19141 13.6836,10.35938 3.03125,5.16797 3.86328,11.20312 2.35156,17 m -43.15234,117.67578 c -0.4336,1.63281 -0.54688,1.60937 -0.25391,-0.0547 l 16.31641,-93.36328 c 0.29296,-1.66797 1.89843,-2.83984 3.57421,-2.60937 0,0 0.23047,0.0352 1.86719,0.0352 h 1.3086 c 1.42578,-0.16406 2.24218,1.04297 1.8125,2.67969 z m 5.25,-98.05469 c 0.16015,-1.6875 1.33984,-2.42578 2.61718,-1.65234 1.28125,0.77734 4.67188,3.64453 4.37891,5.30859 l -15.64453,89.52735 c -0.29297,1.66796 -0.39844,1.65234 -0.23828,-0.0312 z m -13.22657,-0.34765 c 0,-0.60938 0.71875,-1.16016 1.59375,-1.22657 l 0.78125,-0.10937 c 2.54688,-0.35938 4.37891,-1.03125 4.37891,-1.03125 1.58594,-0.58203 2.75391,0.3164 2.59375,2.0039 l -9.57031,100.30079 c -0.16016,1.68359 -0.28516,1.67578 -0.27344,-0.0156 l 0.46875,-94.59766 c 0.008,-1.6914 0.0156,-3.33203 0.0195,-3.64843 0,-0.31641 0.004,-1.07032 0.008,-1.67578 m -1.4414,-5.97657 c -0.14844,0 -0.29688,0 -0.44531,-0.004 -12.363286,-0.24219 -22.218755,-10.4961 -21.980474,-22.85547 0.238282,-12.21485 10.25,-21.98828 22.414064,-21.98828 0.14844,0 0.29687,0.004 0.44141,0.008 12.36328,0.23828 22.22265,10.49219 21.98437,22.85547 -0.24219,12.21484 -10.25,21.98437 -22.41406,21.98437 m -2.98047,105.04297 c -0.008,1.69141 -0.13281,1.69922 -0.27344,0.0117 l -8.347655,-99.79297 c -0.140625,-1.68359 1.023437,-2.54297 2.593755,-1.90625 0,0 1.54687,0.62891 3.9375,1.07813 l 0.84765,0.15625 c 0.95703,0.11328 1.73828,0.7539 1.73438,1.42578 -0.004,0.67578 -0.0117,2.60937 -0.0234,4.30078 z M 85.214844,216.22656 c -0.292969,-1.66406 0.738281,-3.5664 2.296875,-4.22265 l 3.664062,-1.96875 c 1.40625,-0.94141 2.667969,-0.33594 2.8125,1.35156 l 8.417969,100.63281 c 0.14063,1.68359 0.0156,1.69922 -0.27734,0.0352 z m -14.304688,0.42969 c -0.457031,-1.62891 0.535156,-2.71094 2.195313,-2.40234 0,0 1.191406,0.21875 3.371093,0.21875 h 1.445313 c 1.609375,-0.19922 3.171875,1 3.464844,2.66406 l 17.324219,98.16015 c 0.292968,1.66797 0.164062,1.69532 -0.292969,0.0664 z M 54.675781,192.38281 c -1.402343,-5.82422 -0.449219,-11.84375 2.675781,-16.95312 3.125,-5.10938 8.058594,-8.69141 13.882813,-10.09375 5.363281,-1.28907 12.796875,1.07422 12.796875,1.07422 1.609375,0.51562 2.308594,2.17187 1.550781,3.67968 0,0 -3.347656,6.66797 -3.457031,12.23047 -0.09375,4.79297 1.058594,9.32422 3.160156,13.28906 1.617188,3.05079 4.261719,5.78907 4.261719,5.78907 1.175781,1.21484 1.011719,3.01562 -0.363281,3.99609 0,0 -3.679688,2.63281 -7.464844,3.54297 -12.015625,2.89062 -24.152344,-4.53516 -27.042969,-16.55469 m -4.90625,-2.01562 c 0.05859,1.6875 -0.789062,3.14453 -1.890625,3.23828 l -1.007812,-0.0234 c -5.988282,-0.11719 -11.574219,-2.55859 -15.726563,-6.875 -4.152343,-4.31641 -6.371093,-9.99219 -6.257812,-15.98047 0.121093,-5.98828 2.558593,-11.57422 6.878906,-15.72656 1.601563,-1.54297 2.699219,-2.20703 2.699219,-2.20703 1.445312,-0.87891 2.628906,-1.59375 2.632812,-1.58985 0,0 0.01953,-0.004 0.03125,-0.0156 0.01172,-0.0117 1.320313,-0.49219 2.910156,-1.07031 0,0 3.976563,-1.44141 7.707032,-1.37891 2.722656,0.0547 4.898437,0.69922 4.898437,0.69922 1.617188,0.48437 2.933594,2.26172 2.921875,3.95312 0,0 -0.01172,1.15235 0.359375,3.30469 0.566407,3.28125 2.039063,6.40235 2.039063,6.40235 0.722656,1.52734 0.316406,3.73437 -0.902344,4.90625 0,0 -2.246094,2.16015 -3.898438,4.86328 -3.796874,6.19922 -3.394531,17.5 -3.394531,17.5 m -6.617187,-78.14063 c 10.332031,-6.79297 24.261718,-3.92187 31.058594,6.41016 1.355468,2.05859 1.957031,3.78516 1.957031,3.78516 0.554687,1.59765 -0.289063,3.3789 -1.875,3.96093 0,0 -6.503907,2.37891 -10.007813,5.64453 -3.839844,3.57032 -6.734375,10.5 -6.734375,10.5 -0.648437,1.5586 -2.519531,2.48438 -4.152343,2.05078 0,0 -2.613282,-0.6914 -5.558594,-0.74609 -3.308594,-0.0703 -6.578125,0.75781 -6.578125,0.75781 -1.640625,0.41407 -3.457031,0.14844 -4.042969,-0.58593 l -0.472656,-0.71875 c -6.796875,-10.32813 -3.921875,-24.26172 6.40625,-31.0586 M 69.632812,91.292969 c 4.316407,-4.148438 10.003907,-6.363281 15.980469,-6.253907 5.328125,0.105469 10.277344,2.101563 14.117188,5.390626 3.398441,2.902343 5.875001,8.488281 5.875001,8.488281 0.68359,1.546871 0.082,3.558591 -1.33984,4.472661 0,0 -7.226568,4.64453 -10.183599,9.80859 -2.226562,3.89844 -3.109375,9.5625 -3.109375,9.5625 -0.261718,1.67187 -1.753906,2.72266 -3.316406,2.33203 L 86.199219,124.91797 84.839844,124.75 c -1.515625,-0.0117 -3.109375,-1.28125 -3.53125,-2.82031 l -0.550782,-1.34766 c -0.660156,-1.61719 -1.480468,-3.17578 -2.445312,-4.64453 -3.75,-5.69922 -12.609375,-9.92969 -12.609375,-9.92969 -1.527344,-0.73047 -2.375,-2.64843 -1.886719,-4.26562 0,0 2.066406,-6.839846 5.816406,-10.449221 M 118.77344,78.457031 c 5.66797,-1.949219 11.75,-1.574219 17.13281,1.054688 5.54297,2.707031 9.55078,7.5 11.41797,13.050781 1.33984,3.996094 1.20703,9.77734 1.20703,9.77734 -0.0391,1.6875 -1.31641,3.66797 -2.84375,4.39844 0,0 -1.07031,0.51172 -2.82031,1.76563 l -0.98828,0.71093 c -1.01563,0.89844 -2.76563,0.59766 -3.88672,-0.66796 0,0 -3.10157,-3.49219 -6.61328,-5.4961 -4.55078,-2.60547 -9.63672,-3.820311 -14.7461,-3.585936 -1.70703,0.07813 -2.08203,0.148437 -2.08203,0.148437 -1.66406,0.3125 -3.54297,-0.714843 -4.17578,-2.285156 l -2.67187,-5.054687 c -0.95704,-1.394532 -0.9961,-3.695313 -0.0859,-5.121094 0,0 1.95312,-3.042969 4.52734,-5.082032 1.96485,-1.550781 4.19531,-2.777343 6.62891,-3.613281 m -11.30469,55.742189 c -1.25391,1.14062 -3.16797,1.01172 -4.25781,-0.28125 0,0 -1.9961,-2.36719 -4.578128,-4.19141 l -1.035156,-0.73047 c -1.199218,-0.67187 -2.050781,-2.59765 -1.890625,-4.28125 0,0 0.507813,-5.35156 2.636719,-9.07421 2.97656,-5.19922 7.79688,-8.92969 13.57813,-10.50391 5.77734,-1.57031 11.82421,-0.80078 17.02343,2.17578 5.47266,3.12891 9.17578,8.25781 10.61328,14.00391 0.8125,3.25 0.46094,7.04296 0.46094,7.04296 -0.15625,1.6836 -1.54687,2.48829 -3.08594,1.78907 0,0 -5.9414,-2.70313 -11.01171,-2.80078 -4.5625,-0.0781 -9.01172,0.99609 -12.97266,3.01953 -2.89844,1.48437 -5.48047,3.83203 -5.48047,3.83203 m -5.38281,6.47265 c 0.0703,0.043 0.72265,1.32813 1.44922,2.85547 0,0 0.96484,2.03516 1.42578,4.72266 0.4414,2.55859 0.2539,4.58984 0.2539,4.58984 -0.15625,1.6836 -1.625,3.38672 -3.26562,3.78907 0,0 -2.121095,0.51953 -4.437501,1.64843 -2.726563,1.33203 -4.980469,3.23828 -4.980469,3.23828 -1.292969,1.08985 -3.65625,1.52735 -5.253906,0.97266 0,0 -10.304688,-3.57812 -17.195313,-1.92578 -2.375,0.57031 -3.925781,1.28906 -3.925781,1.28906 -1.53125,0.71485 -3.363281,0.0391 -4.074219,-1.49609 0,0 -0.871093,-1.89453 -1.316406,-4.49219 -2.097656,-12.19141 6.109375,-23.8125 18.292969,-25.90625 5.90625,-1.01953 11.851562,0.32422 16.742187,3.78125 2.566407,1.8125 4.402349,4.25781 4.402349,4.25781 1.01171,1.35547 1.83203,2.48047 1.8125,2.50782 -0.0156,0.0234 0,0.125 0.0703,0.16796 m 7.71484,6.75 c -0.39844,-2.3164 -0.9375,-3.74609 -0.9375,-3.74609 -0.59375,-1.58203 -0.10547,-3.85547 1.08985,-5.05078 0,0 2.72656,-2.73047 5.8164,-4.19922 3.08594,-1.47266 6.52344,-2.24219 10.0586,-2.17187 12.36328,0.24218 22.22265,10.49609 21.98046,22.86328 -0.0312,1.61718 -0.0508,1.72265 -0.0508,1.72265 -0.30859,1.66016 -1.92187,2.79297 -3.58984,2.51172 0,0 -3.28906,-0.55078 -6.41406,-0.2539 -3.59375,0.33984 -7.52735,1.97265 -7.52735,1.97265 -1.55859,0.64844 -3.99609,0.42578 -5.41406,-0.49609 0,0 -6.26172,-4.07422 -11.68359,-4.8086 l -1.03125,-0.14062 c -1.16016,-0.0547 -2.01953,-1.07031 -1.90625,-2.25781 l 0.008,-1.08203 c 0.0117,-1.6211 -0.12109,-3.2461 -0.39844,-4.86329 m 49.36719,-39.12109 c 5.98828,0.10547 11.57812,2.53125 15.73828,6.83985 3.88281,4.01562 6,9.21093 6.25781,14.5039 0.19531,4.05469 -1.64062,8.97656 -1.64062,8.97656 -0.59375,1.58203 -2.28125,2.19532 -3.75,1.35938 0,0 -7.83594,-4.44531 -13.99219,-4.56641 -4.97266,-0.0937 -11.17969,2.41406 -11.17969,2.41406 -1.5664,0.63282 -3.38281,0.47266 -4.03515,-0.35546 -0.64844,-0.83204 -2.32813,-4.17188 -2.02344,-5.83204 0,0 0.88281,-4.76562 0.36328,-8.55859 -0.36719,-2.6875 -1.1875,-4.8789 -1.1875,-4.8789 -0.59375,-1.58594 -0.95313,-3.04297 -0.80078,-3.24219 0.15625,-0.19922 1.33984,-1.25391 2.63281,-2.34375 0,0 0.78516,-0.66406 2.55859,-1.6211 3.35938,-1.82421 7.14454,-2.76171 11.0586,-2.69531 m 24.42578,39.38281 c -0.84375,-1.46484 -0.97266,-3.92187 -0.27734,-5.46484 0,0 2.48828,-5.55078 2.73046,-9.99219 0.39844,-7.39843 -2.1875,-14.89062 -7.60937,-20.5 -5.07031,-5.25 -11.88672,-8.21093 -19.1875,-8.33593 -2.10547,-0.0273 -3.16016,0.13671 -3.16016,0.13671 -1.66797,0.26172 -2.9375,-0.90625 -2.82031,-2.59375 0,0 0.23047,-3.218746 -0.33984,-6.249996 -1.5586,-8.292969 -6.91797,-15.699219 -14.8711,-19.582032 -6.55859,-3.203124 -13.97656,-3.660156 -20.8789,-1.289062 -6.375,2.191406 -12.92188,10.023438 -12.92188,10.023438 -1.08203,1.296874 -3.17187,1.667968 -4.636716,0.828124 0,0 -7.699219,-4.414062 -13.914063,-4.535156 -8.621093,-0.164062 -16.410156,3.707032 -21.542969,9.878906 -3.195312,3.839844 -5.210937,10.808598 -5.210937,10.808598 -0.472656,1.625 -2.234375,3.04297 -3.921875,3.15234 0,0 -9.160156,0.59375 -14.578125,4.15625 -12.589844,8.28516 -16.09375,25.26953 -7.808594,37.85937 l 0.328125,0.5 c 0.390625,0.53125 -0.445312,1.73047 -1.855468,2.66407 0,0 -1.128907,0.74609 -2.753907,2.3125 -5.265625,5.0625 -8.242187,11.87109 -8.382812,19.16797 -0.296875,15.07031 11.726562,27.5664 26.792969,27.86328 0.179687,0.004 0.359374,0.004 0.539062,0.004 h 1.398438 c 1.515624,-0.17968 3.4375,0.87891 4.265624,2.35157 0,0 1.890626,3.35156 4.296876,5.72265 2.402343,2.36719 5.621093,4.14063 5.621093,4.14063 1.480469,0.8125 3.066407,2.8125 3.519531,4.4414 l 39.074218,140.20703 c 0.45313,1.62891 1.25391,2.84375 1.77344,2.69922 0.51953,-0.14453 1.37109,-0.15234 1.89453,-0.0156 0.52344,0.14062 1.30078,-1.08203 1.73438,-2.71875 l 36.9414,-139.98828 c 0.43359,-1.63672 2.07813,-3.46485 3.66016,-4.0625 0,0 0.89062,-0.33594 2.66406,-1.375 6.30078,-3.6875 10.78516,-9.61328 12.625,-16.67578 l 0.33594,-1.28516 c 0.21093,-1.42578 1.67187,-3.09766 3.25,-3.71094 0,0 6.59765,-2.57422 10.09375,-6.02734 4.92187,-4.85938 7.97265,-11.5586 8.11718,-18.91797 0.12891,-6.74609 -4.98437,-15.59766 -4.98437,-15.59766"
       id="path79" />
  </g>
  <g
     style="fill:#ffffff;fill-opacity:1"
     id="g93">
    <use
       xlink:href="#glyph0-1"
       x="74.629951"
       y="56.827183"
       id="use83"
       width="100%"
       height="100%" />
    <use
       xlink:href="#glyph0-2"
       x="93.475601"
       y="56.827183"
       id="use85"
       width="100%"
       height="100%" />
    <use
       xlink:href="#glyph0-3"
       x="112.58247"
       y="56.827183"
       id="use87"
       width="100%"
       height="100%" />
    <use
       xlink:href="#glyph0-4"
       x="133.48062"
       y="56.827183"
       id="use89"
       width="100%"
       height="100%" />
    <use
       xlink:href="#glyph0-5"
       x="152.47554"
       y="56.827183"
       id="use91"
       width="100%"
       height="100%" />
  </g>
  <g
     style="fill:#ffffff;fill-opacity:1"
     id="g97">
    <use
       xlink:href="#glyph0-6"
       x="171.28386"
       y="56.827183"
       id="use95"
       width="100%"
       height="100%" />
  </g>
  <g
     style="fill:#ffffff;fill-opacity:1"
     id="g107">
    <use
       xlink:href="#glyph0-7"
       x="187.36797"
       y="56.827183"
       id="use99"
       width="100%"
       height="100%" />
    <use
       xlink:href="#glyph0-8"
       x="202.8923"
       y="56.827183"
       id="use101"
       width="100%"
       height="100%" />
    <use
       xlink:href="#glyph0-9"
       x="221.99918"
       y="56.827183"
       id="use103"
       width="100%"
       height="100%" />
    <use
       xlink:href="#glyph0-6"
       x="236.44128"
       y="56.827183"
       id="use105"
       width="100%"
       height="100%" />
  </g>
  <g
     style="fill:#ffffff;fill-opacity:1"
     id="g121">
    <use
       xlink:href="#glyph0-7"
       x="252.52539"
       y="56.827183"
       id="use109"
       width="100%"
       height="100%" />
    <use
       xlink:href="#glyph0-10"
       x="268.04974"
       y="56.827183"
       id="use111"
       width="100%"
       height="100%" />
    <use
       xlink:href="#glyph0-2"
       x="277.97635"
       y="56.827183"
       id="use113"
       width="100%"
       height="100%" />
    <use
       xlink:href="#glyph0-3"
       x="297.08322"
       y="56.827183"
       id="use115"
       width="100%"
       height="100%" />
    <use
       xlink:href="#glyph0-11"
       x="317.98135"
       y="56.827183"
       id="use117"
       width="100%"
       height="100%" />
    <use
       xlink:href="#glyph0-12"
       x="336.22992"
       y="56.827183"
       id="use119"
       width="100%"
       height="100%" />
  </g>
  <flowRoot
     style="font-style:normal;font-weight:normal;line-height:1.25;font-family:sans-serif;letter-spacing:0px;word-spacing:0px;fill:#000000;fill-opacity:1;stroke:none"
     id="flowRoot944"
     xml:space="preserve"
     transform="matrix(0.75,0,0,0.75,29.139082,-5.2182982)"><flowRegion
       id="flowRegion946"><rect
         y="132.84409"
         x="217.7634"
         height="254.75797"
         width="292.59329"
         id="rect948" /></flowRegion><flowPara
       style="font-style:normal;font-variant:normal;font-weight:normal;font-stretch:normal;font-size:$FONT_SIZEpx;font-family:'Finger Paint';-inkscape-font-specification:'Finger Paint'"
       id="flowPara950">$TEXT</flowPara></flowRoot></svg>
